{"items":[{"id":"1d696f74-6e22-497c-aa92-3f78edfe65db","lead_name":"Ashish","lead_phone":"+919999643755","status":"busy","disposition":"not_answered","disposition_label":null,"disposition_category":null,"duration_seconds":15,"answered_at":null,"ended_at":"2026-06-02T10:15:34.012731Z","initiated_at":"2026-06-02T10:15:18.915392Z","pre_score":null,"post_call_score":null,"current_score":null,"outcome_disposition":null,"outcome_disposition_label":null,"next_action":null},{"id":"c5e7023c-5b28-4a57-8121-3b26ecf71d94","lead_name":"Ridisha","lead_phone":"+919460270488","status":"completed","disposition":"customer_hangup","disposition_label":null,"disposition_category":null,"duration_seconds":120,"answered_at":"2026-06-02T10:15:25.141503Z","ended_at":"2026-06-02T10:16:48.441518Z","initiated_at":"2026-06-02T10:15:18.915392Z","pre_score":null,"post_call_score":null,"current_score":null,"outcome_disposition":null,"outcome_disposition_label":null,"next_action":null},{"id":"ae563919-fcac-4c0c-961e-10fc99faaa8d","lead_name":"Ashish","lead_phone":"+919999643755","status":"completed","disposition":"no_greeting_response","disposition_label":null,"disposition_category":null,"duration_seconds":60,"answered_at":"2026-06-02T10:15:39.821188Z","ended_at":"2026-06-02T10:15:53.174882Z","initiated_at":"2026-06-02T10:15:05.003034Z","pre_score":null,"post_call_score":null,"current_score":null,"outcome_disposition":null,"outcome_disposition_label":null,"next_action":null},{"id":"79748cf6-80e0-405c-a051-1adde70b85e2","lead_name":"Tina","lead_phone":"+918448867606","status":"completed","disposition":"silent_pickup","disposition_label":null,"disposition_category":null,"duration_seconds":18,"answered_at":"2026-06-02T10:14:59.518953Z","ended_at":"2026-06-02T10:15:18.129566Z","initiated_at":"2026-06-02T10:14:37.218222Z","pre_score":null,"post_call_score":null,"current_score":null,"outcome_disposition":null,"outcome_disposition_label":null,"next_action":null},{"id":"b9e940dd-153d-4b99-8cde-f69eff40592f","lead_name":"Shubhanshu","lead_phone":"+917428478926","status":"busy","disposition":"not_answered","disposition_label":null,"disposition_category":null,"duration_seconds":15,"answered_at":null,"ended_at":"2026-06-02T10:14:34.140103Z","initiated_at":"2026-06-02T10:14:19.138123Z","pre_score":null,"post_call_score":null,"current_score":null,"outcome_disposition":null,"outcome_disposition_label":null,"next_action":null}],"total":108,"page":1,"page_size":5,"total_pages":22}